Start time: Sun Mar  7 17:53:12 CET 2021
Job is running on node: b7s06n1377.cern.ch
Job running as user: uid=130418(csauer) gid=1307(zp) groups=1307(zp) context=system_u:system_r:condor_startd_t:s0
Job is running in directory: /pool/condor/dir_25311
[INFO] Setting up environment for CMS release CMSSW_5_3_32
WARNING: Release CMSSW_5_3_32 is not available for architecture slc6_amd64_gcc700.
         Developer's area is created for available architecture slc6_amd64_gcc472.
Initialized empty Git repository in /pool/condor/dir_25311/CMSSW_5_3_32/src/SkimSingleMuonData/.git/
Error: '%s' file does not exist.
import FWCore.ParameterSet.Config as cms

process = cms.Process("TEST")

process.load('Configuration.StandardSequences.Services_cff')
process.load('FWCore.MessageService.MessageLogger_cfi')
process.options   = cms.untracked.PSet( wantSummary = cms.untracked.bool(True) )
process.MessageLogger.cerr.FwkReport.reportEvery = 10
process.maxEvents = cms.untracked.PSet( input = cms.untracked.int32(1000) )


## Geometry and Detector Conditions (needed for a few patTuple production steps)
process.load("Configuration.Geometry.GeometryRecoDB_cff")
process.load("Configuration.StandardSequences.FrontierConditions_GlobalTag_cff")
from Configuration.AlCa.GlobalTag import GlobalTag
# Globaltag for 2012 collision data
process.GlobalTag.connect = cms.string('sqlite_file:/cvmfs/cms-opendata-conddb.cern.ch/FT53_V21A_AN6_FULL.db')
process.GlobalTag.globaltag = 'FT53_V21A_AN6::All'

# Input fiel(s)
import FWCore.Utilities.FileUtils as FileUtils
files2011data = FileUtils.loadListFromFile ('datasets/list_Run2012B-22Jan2013-v1.txt')
readFiles = cms.untracked.vstring( *files2011data )
#process.source.fileNames = readFiles

process.source = cms.Source("PoolSource",
  fileNames = readFiles,
  inputCommands=cms.untracked.vstring(
    'drop *',
    'keep recoMuons_muons_*_RECO',
    'keep recoPFMETs_pfMet_*_RECO',
    'keep recoGsfElectrons_gsfElectrons_*_RECO',
    'keep recoJetedmRefToBaseProdTofloatsAssociationVector_combinedSecondaryVertexBJetTags_*_RECO',
    'keep recoPFJets_ak5PFJets_*_RECO',
    'keep recoPFCandidates_particleFlow_*_RECO'
  ),
 dropDescendantsOfDroppedBranches=cms.untracked.bool(False)
)

# Good run list
import FWCore.ParameterSet.Config as cms
import FWCore.PythonUtilities.LumiList as LumiList
myLumis = LumiList.LumiList(filename="datasets/Cert_190456-208686_8TeV_22Jan2013ReReco_Collisions12_JSON.txt").getCMSSWString().split(",")
process.source.lumisToProcess = cms.untracked.VLuminosityBlockRange()
process.source.lumisToProcess.extend(myLumis)

process.output = cms.OutputModule("PoolOutputModule",
  fileName = cms.untracked.string("singleMuonSlimAOD.root")
)

process.e1 = cms.EndPath(process.output)


[INFO] Done!
